Praticas/P11_12_13/simulation/qsim/Mod64Counter.msim.vcd
$comment
	File created using the following command:
		vcd file Mod64Counter.msim.vcd -direction
$end
$date
	Thu Dec 29 16:08:06 2022
$end
$version
	ModelSim Version 2020.1
$end
$timescale
	1ps
$end

$scope module Mod64Counter_vlg_vec_tst $end
$var reg 1 ! CLK $end
$var wire 1 " Y [7] $end
$var wire 1 # Y [6] $end
$var wire 1 $ Y [5] $end
$var wire 1 % Y [4] $end
$var wire 1 & Y [3] $end
$var wire 1 ' Y [2] $end
$var wire 1 ( Y [1] $end
$var wire 1 ) Y [0] $end

$scope module i1 $end
$var wire 1 * gnd $end
$var wire 1 + vcc $end
$var wire 1 , unknown $end
$var tri1 1 - devclrn $end
$var tri1 1 . devpor $end
$var tri1 1 / devoe $end
$var wire 1 0 Y[7]~output_o $end
$var wire 1 1 Y[6]~output_o $end
$var wire 1 2 Y[5]~output_o $end
$var wire 1 3 Y[4]~output_o $end
$var wire 1 4 Y[3]~output_o $end
$var wire 1 5 Y[2]~output_o $end
$var wire 1 6 Y[1]~output_o $end
$var wire 1 7 Y[0]~output_o $end
$var wire 1 8 CLK~input_o $end
$var wire 1 9 inst|43~0_combout $end
$var wire 1 : inst|43~q $end
$var wire 1 ; ewqqe~combout $end
$var wire 1 < inst|40~combout $end
$var wire 1 = inst|44~q $end
$var wire 1 > inst|41~combout $end
$var wire 1 ? inst|45~q $end
$var wire 1 @ inst|42~0_combout $end
$var wire 1 A inst|42~combout $end
$var wire 1 B inst|46~q $end
$var wire 1 C inst1|43~0_combout $end
$var wire 1 D inst1|43~q $end
$var wire 1 E inst1|40~0_combout $end
$var wire 1 F inst1|44~q $end
$upscope $end
$upscope $end
$enddefinitions $end
#0
$dumpvars
0!
0)
0(
0'
0&
0%
0$
0#
0"
0*
1+
x,
1-
1.
1/
00
01
02
03
04
05
06
07
08
19
0:
0;
0<
0=
0>
0?
0@
0A
0B
0C
0D
0E
0F
$end
#12500
1!
18
1:
17
1)
1<
09
#25000
0!
08
#37500
1!
18
1=
0:
07
16
1(
0)
19
#50000
0!
08
#62500
1!
18
1:
17
1)
1>
0<
09
#75000
0!
08
#87500
1!
18
1?
0=
0:
07
06
15
1'
0(
0)
19
#100000
0!
08
#112500
1!
18
1:
17
1)
1<
09
#125000
0!
08
#137500
1!
18
1=
0:
07
16
1@
1(
0)
19
#150000
0!
08
#162500
1!
18
1:
17
1)
1A
0>
0<
09
#175000
0!
08
#187500
1!
18
1B
0?
0=
0:
07
06
05
14
0@
1&
0'
0(
0)
19
#200000
0!
08
#212500
1!
18
1:
17
1)
1C
0A
09
#225000
0!
08
#237500
1!
18
1D
0B
0:
07
04
13
1%
0&
0)
19
#250000
0!
08
#262500
1!
18
1:
17
1)
1<
09
#275000
0!
08
#287500
1!
18
1=
0:
07
16
1(
0)
19
#300000
0!
08
#312500
1!
18
1:
17
1)
1>
0<
09
#325000
0!
08
#337500
1!
18
1?
0=
0:
07
06
15
1'
0(
0)
19
#350000
0!
08
#362500
1!
18
1:
17
1)
1<
09
#375000
0!
08
#387500
1!
18
1=
0:
07
16
1@
1(
0)
19
#400000
0!
08
#412500
1!
18
1:
17
1)
1A
0>
0<
09
#425000
0!
08
#437500
1!
18
1B
0?
0=
0:
07
06
05
14
0@
1&
0'
0(
0)
19
#450000
0!
08
#462500
1!
18
1:
17
1)
1E
0C
0A
09
#475000
0!
08
#487500
1!
18
1F
0D
0B
0:
07
04
03
12
1$
0%
0&
0)
19
#500000
0!
08
#512500
1!
18
1:
17
1)
1<
09
#525000
0!
08
#537500
1!
18
1=
0:
07
16
1(
0)
19
#550000
0!
08
#562500
1!
18
1:
17
1)
1>
0<
09
#575000
0!
08
#587500
1!
18
1?
0=
0:
07
06
15
1'
0(
0)
19
#600000
0!
08
#612500
1!
18
1:
17
1)
1<
09
#625000
0!
08
#637500
1!
18
1=
0:
07
16
1@
1(
0)
19
#650000
0!
08
#662500
1!
18
1:
17
1)
1A
0>
0<
09
#675000
0!
08
#687500
1!
18
1B
0?
0=
0:
07
06
05
14
0@
1&
0'
0(
0)
19
#700000
0!
08
#712500
1!
18
1:
17
1)
1C
0A
09
#725000
0!
08
#737500
1!
18
1D
0B
0:
07
04
13
1%
0&
0)
19
#750000
0!
08
#762500
1!
18
1:
17
1)
1<
09
#775000
0!
08
#787500
1!
18
1=
0:
07
16
1(
0)
19
#800000
0!
08
#812500
1!
18
1:
17
1)
1>
0<
09
#825000
0!
08
#837500
1!
18
1?
0=
0:
07
06
15
1'
0(
0)
19
#850000
0!
08
#862500
1!
18
1:
17
1)
1<
09
#875000
0!
08
#887500
1!
18
1=
0:
07
16
1@
1(
0)
19
#900000
0!
08
#912500
1!
18
1:
17
1)
1A
0>
0<
09
#925000
0!
08
#937500
1!
18
1B
0?
0=
0:
07
06
05
14
0@
1&
0'
0(
0)
19
#950000
0!
08
#962500
1!
18
1:
17
1;
1)
0E
0C
0A
09
#975000
0!
08
#987500
1!
18
0F
0D
0B
0:
07
04
03
02
0;
0$
0%
0&
0)
19
