Praticas/P11_12_13/simulation/qsim/SeqDet3in5.msim.vcd
$comment
	File created using the following command:
		vcd file SeqDet3in5.msim.vcd -direction
$end
$date
	Thu Dec 15 09:36:50 2022
$end
$version
	ModelSim Version 2020.1
$end
$timescale
	1ps
$end

$scope module SeqDet3in5_vlg_vec_tst $end
$var reg 1 ! Clk $end
$var reg 3 " P [2:0] $end
$var reg 1 # X $end
$var wire 1 $ Y $end

$scope module i1 $end
$var wire 1 % gnd $end
$var wire 1 & vcc $end
$var wire 1 ' unknown $end
$var tri1 1 ( devclrn $end
$var tri1 1 ) devpor $end
$var tri1 1 * devoe $end
$var wire 1 + Y~output_o $end
$var wire 1 , Clk~input_o $end
$var wire 1 - X~input_o $end
$var wire 1 . orq2~0_combout $end
$var wire 1 / P[2]~input_o $end
$var wire 1 0 Q2~q $end
$var wire 1 1 orq0~0_combout $end
$var wire 1 2 P[0]~input_o $end
$var wire 1 3 Q0~q $end
$var wire 1 4 orq1~0_combout $end
$var wire 1 5 P[1]~input_o $end
$var wire 1 6 Q1~q $end
$var wire 1 7 ory~combout $end
$upscope $end
$upscope $end
$enddefinitions $end
#0
$dumpvars
1!
b110 "
1#
0$
0%
1&
x'
1(
1)
1*
0+
1,
1-
1.
1/
00
01
02
03
04
15
06
07
$end
#30000
0!
b111 "
12
0,
#60000
0#
1!
0-
1,
14
0.
10
17
1.
1+
1$
#90000
0!
0,
#120000
1!
1,
16
07
0+
0$
#150000
0!
0,
#180000
1#
1!
1-
1,
11
#210000
0!
0,
#240000
1!
1,
13
04
#270000
0!
0,
#300000
0#
1!
0-
1,
14
01
06
04
0.
#330000
0!
0,
#360000
1#
1!
1-
1,
11
03
00
01
1.
#390000
0!
0,
#420000
1!
1,
10
14
#450000
0!
0,
#480000
0#
1!
0-
1,
17
1+
1$
16
07
0+
0$
#510000
0!
0,
#540000
1!
1,
#570000
0!
0,
#600000
1#
1!
1-
1,
11
#630000
0!
0,
#660000
1!
1,
13
04
#690000
0!
0,
#720000
0#
1!
0-
1,
14
01
06
04
0.
#750000
0!
0,
#780000
1#
1!
1-
1,
11
03
00
01
1.
#810000
0!
0,
#840000
0#
1!
0-
1,
14
0.
10
17
1.
1+
1$
#870000
0!
0,
#900000
1!
1,
16
07
0+
0$
#930000
x#
x!
x-
x,
x1
