Praticas/P11_12_13/simulation/qsim/SeqDet1101.msim.vcd
$comment
	File created using the following command:
		vcd file SeqDet1101.msim.vcd -direction
$end
$date
	Thu Dec 29 14:11:00 2022
$end
$version
	ModelSim Version 2020.1
$end
$timescale
	1ps
$end

$scope module SeqDet1101_vlg_vec_tst $end
$var reg 1 ! C1 $end
$var reg 1 " Clk $end
$var reg 1 # P1 $end
$var reg 1 $ X $end
$var wire 1 % Y $end

$scope module i1 $end
$var wire 1 & gnd $end
$var wire 1 ' vcc $end
$var wire 1 ( unknown $end
$var tri1 1 ) devclrn $end
$var tri1 1 * devpor $end
$var tri1 1 + devoe $end
$var wire 1 , Y~output_o $end
$var wire 1 - X~input_o $end
$var wire 1 . Clk~input_o $end
$var wire 1 / Q1~q $end
$var wire 1 0 P1~input_o $end
$var wire 1 1 C1~input_o $end
$var wire 1 2 Q0~1_combout $end
$var wire 1 3 Q0~3_combout $end
$var wire 1 4 Q0~0_combout $end
$var wire 1 5 Q0~_emulated_q $end
$var wire 1 6 Q0~2_combout $end
$var wire 1 7 and3~0_combout $end
$upscope $end
$upscope $end
$enddefinitions $end
#0
$dumpvars
1!
0"
0#
0$
0%
0&
1'
x(
1)
1*
1+
0,
0-
0.
0/
00
11
12
03
14
05
16
07
$end
#30000
1"
1.
#60000
1$
0"
1-
0.
#90000
1"
1.
1/
13
#120000
0$
0"
0-
0.
03
#150000
1"
1.
0/
#180000
1$
0"
1-
0.
#210000
1"
1.
1/
13
#240000
0"
0.
#270000
1"
1.
#300000
0"
0.
#330000
1"
1.
#360000
0$
0"
0-
0.
03
#390000
1"
1.
0/
#420000
1$
0"
1-
0.
#450000
1"
1.
1/
13
#480000
0"
0.
#510000
1"
1.
#540000
0$
0"
0-
0.
03
#570000
1"
1.
0/
#600000
1$
0"
1-
0.
#630000
1"
1.
1/
13
#660000
0$
0"
0-
0.
03
#690000
1"
1.
0/
#720000
1$
0"
1-
0.
#750000
1"
1.
1/
13
#780000
0"
0.
#810000
1"
1.
#840000
0$
0"
0-
0.
03
#870000
1"
1.
0/
#900000
0"
0.
#930000
1"
1.
#960000
0"
0.
#990000
1"
1.
