Praticas/P11_12_13/simulation/qsim/SerialNeg.msim.vcd
$comment
	File created using the following command:
		vcd file SerialNeg.msim.vcd -direction
$end
$date
	Thu Dec 29 14:56:42 2022
$end
$version
	ModelSim Version 2020.1
$end
$timescale
	1ps
$end

$scope module SerialNeg_vlg_vec_tst $end
$var reg 1 ! Clk $end
$var reg 1 " Reset $end
$var reg 1 # X $end
$var wire 1 $ Y $end

$scope module i1 $end
$var wire 1 % gnd $end
$var wire 1 & vcc $end
$var wire 1 ' unknown $end
$var tri1 1 ( devclrn $end
$var tri1 1 ) devpor $end
$var tri1 1 * devoe $end
$var wire 1 + Y~output_o $end
$var wire 1 , Clk~input_o $end
$var wire 1 - Reset~input_o $end
$var wire 1 . X~input_o $end
$var wire 1 / inst11~0_combout $end
$var wire 1 0 Q1~q $end
$var wire 1 1 inst10~0_combout $end
$var wire 1 2 Q0~q $end
$upscope $end
$upscope $end
$enddefinitions $end
#0
$dumpvars
1!
0"
x#
0$
0%
1&
x'
1(
1)
1*
0+
1,
0-
x.
0/
00
01
02
$end
#10
0!
0,
#10000
1"
0#
1-
0.
#10010
1!
1,
#20010
0!
0,
#30000
1#
1.
11
#30010
1!
1,
12
1+
1$
01
1/
#40010
0!
0,
#50000
0#
0.
11
0/
#50010
1!
1,
#60010
0!
0,
#70000
1#
1.
01
1/
#70010
1!
1,
10
02
0+
0$
#80010
0!
0,
#90000
0"
0#
0-
0.
0/
#90010
1!
1,
00
#100010
0!
0,
#110000
1"
1#
1-
1.
11
#110010
1!
1,
12
1+
1$
01
1/
#120010
0!
0,
#130000
0#
0.
11
0/
#130010
1!
1,
#140010
0!
0,
#150010
1!
1,
#160010
0!
0,
#170000
1#
1.
01
1/
#170010
1!
1,
10
02
0+
0$
#180010
0!
0,
#190000
0"
0#
0-
0.
0/
#190010
1!
1,
00
#200010
0!
0,
#210010
1!
1,
#220010
0!
0,
#230010
1!
1,
#240010
0!
0,
#250010
1!
1,
#260010
0!
0,
#270010
1!
1,
#280010
0!
0,
#290010
1!
1,
#300010
0!
0,
#310010
1!
1,
#320010
0!
0,
#330010
1!
1,
#340010
0!
0,
#350010
1!
1,
#360010
0!
0,
#370010
1!
1,
#380010
0!
0,
#390010
1!
1,
#400010
0!
0,
#410010
1!
1,
#420010
0!
0,
#430010
1!
1,
#440010
0!
0,
#450010
1!
1,
#460010
0!
0,
#470010
1!
1,
#480010
0!
0,
#490010
1!
1,
#500010
0!
0,
#510010
1!
1,
#520010
0!
0,
#530010
1!
1,
#540010
0!
0,
#550010
1!
1,
#560010
0!
0,
#570010
1!
1,
#580010
0!
0,
#590010
1!
1,
#600010
0!
0,
#610010
1!
1,
#620010
0!
0,
#630010
1!
1,
#640010
0!
0,
#650010
1!
1,
#660010
0!
0,
#670010
1!
1,
#680010
0!
0,
#690010
1!
1,
#700010
0!
0,
#710010
1!
1,
#720010
0!
0,
#730010
1!
1,
#740010
0!
0,
#750010
1!
1,
#760010
0!
0,
#770010
1!
1,
#780010
0!
0,
#790010
1!
1,
#800010
0!
0,
#810010
1!
1,
#820010
0!
0,
#830010
1!
1,
#840010
0!
0,
#850010
1!
1,
#860010
0!
0,
#870010
1!
1,
#880010
0!
0,
#890010
1!
1,
#900010
0!
0,
#910010
1!
1,
#920010
0!
0,
#930010
1!
1,
#940010
0!
0,
#950010
1!
1,
#960010
0!
0,
#970010
1!
1,
#980010
0!
0,
#990010
1!
1,
