Praticas/P8/Parte1/simulation/qsim/AddSubDemo.msim.vcd
$comment
	File created using the following command:
		vcd file AddSubDemo.msim.vcd -direction
$end
$date
	Wed Nov 23 22:50:14 2022
$end
$version
	ModelSim Version 2020.1
$end
$timescale
	1ps
$end

$scope module AddSub4_vlg_vec_tst $end
$var reg 4 ! A [3:0] $end
$var reg 1 " ADD_n_SUB $end
$var reg 4 # B [3:0] $end
$var wire 1 $ OverFlow $end
$var wire 1 % S [3] $end
$var wire 1 & S [2] $end
$var wire 1 ' S [1] $end
$var wire 1 ( S [0] $end

$scope module i1 $end
$var wire 1 ) gnd $end
$var wire 1 * vcc $end
$var wire 1 + unknown $end
$var tri1 1 , devclrn $end
$var tri1 1 - devpor $end
$var tri1 1 . devoe $end
$var wire 1 / OverFlow~output_o $end
$var wire 1 0 S[3]~output_o $end
$var wire 1 1 S[2]~output_o $end
$var wire 1 2 S[1]~output_o $end
$var wire 1 3 S[0]~output_o $end
$var wire 1 4 B[3]~input_o $end
$var wire 1 5 ADD_n_SUB~input_o $end
$var wire 1 6 B[2]~input_o $end
$var wire 1 7 B[1]~input_o $end
$var wire 1 8 A[0]~input_o $end
$var wire 1 9 B[0]~input_o $end
$var wire 1 : FullAdder1|and4~0_combout $end
$var wire 1 ; A[1]~input_o $end
$var wire 1 < FullAdder2|and4~0_combout $end
$var wire 1 = A[2]~input_o $end
$var wire 1 > FullAdder3|and4~0_combout $end
$var wire 1 ? A[3]~input_o $end
$var wire 1 @ Xor5~0_combout $end
$var wire 1 A FullAdder4|xor2~0_combout $end
$var wire 1 B FullAdder3|xor2~0_combout $end
$var wire 1 C FullAdder2|xor2~combout $end
$var wire 1 D FullAdder1|xor2~0_combout $end
$upscope $end
$upscope $end
$enddefinitions $end
#0
$dumpvars
b10 !
0"
b1 #
0$
1(
1'
0&
0%
0)
1*
x+
1,
1-
1.
0/
00
01
12
13
04
05
06
07
08
19
0:
1;
0<
0=
0>
0?
0@
0A
0B
1C
1D
$end
#50000
b1001 #
b1101 #
16
14
1B
1A
10
11
1&
1%
#100000
b1010 !
b101 #
04
1?
#150000
1"
b111 #
b11 #
15
17
06
0A
1@
1/
00
0%
1$
#200000
b1000 !
b1001 !
b1 !
b111 #
16
18
0;
0?
1:
0B
0D
0C
1A
0@
0/
10
02
03
01
0&
0(
0'
1%
0$
1C
12
1'
#250000
b110 #
b100 #
09
07
1<
1D
0C
02
13
1(
0'
1B
11
1&
#300000
b1100 #
0"
b1101 #
19
14
05
1>
0<
0D
1C
0B
01
12
03
0>
0(
1'
0&
0A
1B
11
00
0%
1&
1A
10
1%
#350000
b1001 #
06
0B
01
0&
#400000
b11 !
b1011 #
b11 #
b111 #
17
16
04
1;
1<
1B
0A
00
11
1>
1&
0%
0B
01
0&
1A
1@
1/
10
1%
1$
#450000
1"
b110 #
b100 #
b1100 #
b1000 #
15
09
07
06
14
1D
13
1(
#500000
b1 !
b1100 #
16
0;
0>
1B
0C
02
11
1&
0'
0A
0@
0/
00
0%
0$
#550000
b1000 #
06
1>
0B
01
0&
1A
1@
1/
10
1%
1$
#600000
b0 !
b1000 !
0"
b1010 #
b10 #
b1010 !
05
17
04
08
1;
1?
0>
0:
1C
1B
0A
0@
0D
03
0/
00
11
12
1'
1&
0%
0$
0(
1A
0C
02
10
1%
0'
#700000
b1110 !
b0 #
07
1=
0<
1>
1C
0B
01
12
0>
1'
0&
1B
0A
00
11
1&
0%
1A
10
1%
#750000
b1 #
1"
b11 #
19
17
15
1>
1D
0B
0A
1@
1/
00
01
13
1(
0&
0%
1$
1A
0@
0/
10
1%
0$
#800000
b111 #
b110 !
b1111 #
b100 !
b1110 #
0;
0?
09
16
14
1:
0>
0C
1@
0D
1B
11
03
1/
02
0'
1$
0(
1&
1C
0A
0@
0/
00
12
1'
0%
0$
#850000
b1010 #
b10 #
b11 #
19
06
04
0:
1>
1D
0B
1A
10
01
13
1(
0&
1%
0C
0A
00
02
0'
0%
#900000
b101 !
b1 !
0"
b1 #
b1001 !
b1011 !
b1001 #
b1000 #
05
09
07
14
18
1;
0=
1?
0>
1C
1A
10
12
1'
1%
0A
1@
1/
00
0%
1$
#950000
b1010 #
b10 #
b11 #
19
17
04
1:
1<
0D
0C
1A
0@
0/
10
02
03
0(
0'
1%
0$
1C
1B
11
12
1'
1&
