Avaliacao/TP2_S1/S1/simulation/qsim/S1_115304.msim.vcd
$comment
	File created using the following command:
		vcd file S1_115304.msim.vcd -direction
$end
$date
	Thu Nov 24 10:30:56 2022
$end
$version
	ModelSim Version 2020.1
$end
$timescale
	1ps
$end

$scope module Function_vlg_vec_tst $end
$var reg 1 ! A $end
$var reg 1 " B $end
$var reg 1 # C $end
$var reg 1 $ D $end
$var wire 1 % F $end

$scope module i1 $end
$var wire 1 & gnd $end
$var wire 1 ' vcc $end
$var wire 1 ( unknown $end
$var tri1 1 ) devclrn $end
$var tri1 1 * devpor $end
$var tri1 1 + devoe $end
$var wire 1 , F~output_o $end
$var wire 1 - D~input_o $end
$var wire 1 . A~input_o $end
$var wire 1 / B~input_o $end
$var wire 1 0 C~input_o $end
$var wire 1 1 1|inst3|22~0_combout $end
$upscope $end
$upscope $end
$enddefinitions $end
#0
$dumpvars
0!
0"
0#
0$
0%
0&
1'
x(
1)
1*
1+
0,
0-
0.
0/
00
01
$end
#40000
1$
1-
#80000
1#
0$
10
0-
11
1,
1%
#120000
1$
1-
#160000
1"
0#
0$
1/
00
0-
01
0,
0%
#200000
1$
1-
11
1,
1%
#240000
1#
0$
10
0-
#280000
1$
1-
01
0,
0%
#320000
1!
0"
0#
0$
1.
0/
00
0-
11
1,
1%
#360000
1$
1-
#400000
1#
0$
10
0-
#440000
1$
1-
01
0,
0%
#480000
1"
0#
0$
1/
00
0-
#520000
1$
1-
11
1,
1%
#560000
1#
0$
10
0-
01
0,
0%
#600000
1$
1-
11
1,
1%
#640000
0!
0"
0#
0$
0.
0/
00
0-
01
0,
0%
#680000
1$
1-
#720000
1#
0$
10
0-
11
1,
1%
#760000
1$
1-
#800000
1"
0#
0$
1/
00
0-
01
0,
0%
#840000
1$
1-
11
1,
1%
#880000
1#
0$
10
0-
#920000
1$
1-
01
0,
0%
#960000
1!
0"
0#
0$
1.
0/
00
0-
11
1,
1%
