Praticas/P9_10/simulation/qsim/Bin2Gray.msim.vcd
$comment
	File created using the following command:
		vcd file Bin2Gray.msim.vcd -direction
$end
$date
	Thu Dec 15 10:34:45 2022
$end
$version
	ModelSim Version 2020.1
$end
$timescale
	1ps
$end

$scope module Bin2Gray_vlg_vec_tst $end
$var reg 1 ! Clk $end
$var reg 1 " Reset $end
$var reg 1 # X $end
$var wire 1 $ Y0 $end
$var wire 1 % Y1 $end
$var wire 1 & Y2 $end

$scope module i1 $end
$var wire 1 ' gnd $end
$var wire 1 ( vcc $end
$var wire 1 ) unknown $end
$var tri1 1 * devclrn $end
$var tri1 1 + devpor $end
$var tri1 1 , devoe $end
$var wire 1 - buffer~o $end
$var wire 1 . Y0~output_o $end
$var wire 1 / Y1~output_o $end
$var wire 1 0 Clk~input_o $end
$var wire 1 1 X~input_o $end
$var wire 1 2 Reset~input_o $end
$var wire 1 3 and~combout $end
$var wire 1 4 Q0~q $end
$var wire 1 5 Q1~q $end
$var wire 1 6 xor1~combout $end
$var wire 1 7 xor2~combout $end
$upscope $end
$upscope $end
$enddefinitions $end
#0
$dumpvars
0!
0"
1#
1$
0%
0&
0'
1(
x)
1*
1+
1,
0-
1.
0/
00
11
02
03
04
05
16
07
$end
#25000
1!
10
#50000
0#
0!
01
00
06
0.
0$
#75000
1!
10
#80000
1"
12
#100000
0!
00
#125000
1!
10
#150000
1#
0!
11
00
16
13
1.
1$
#175000
1!
10
14
17
06
0.
1/
1%
0$
#200000
0#
0!
01
00
16
03
1.
1$
#225000
1!
10
15
04
1-
1&
06
0.
0$
#250000
0!
00
#275000
1!
10
05
0-
0&
07
0/
0%
#300000
0!
00
#325000
1!
10
#350000
0!
00
#375000
1!
10
#400000
0!
00
#425000
1!
10
#450000
0!
00
#475000
1!
10
#500000
0"
0!
02
00
#525000
1!
10
#550000
0!
00
#575000
1!
10
#600000
0!
00
#625000
1!
10
#650000
0!
00
#675000
1!
10
#700000
0!
00
#725000
1!
10
#750000
0!
00
#775000
1!
10
#800000
0!
00
#825000
1!
10
#850000
0!
00
#875000
1!
10
#900000
0!
00
#925000
1!
10
#950000
0!
00
#975000
1!
10
