Praticas/P9_10/simulation/qsim/Teste.msim.vcd
$comment
	File created using the following command:
		vcd file Teste.msim.vcd -direction
$end
$date
	Thu Dec 08 23:46:38 2022
$end
$version
	ModelSim Version 2020.1
$end
$timescale
	1ps
$end

$scope module Teste_vlg_vec_tst $end
$var reg 1 ! clk $end
$var reg 1 " x $end
$var wire 1 # Y $end

$scope module i1 $end
$var wire 1 $ gnd $end
$var wire 1 % vcc $end
$var wire 1 & unknown $end
$var tri1 1 ' devclrn $end
$var tri1 1 ( devpor $end
$var tri1 1 ) devoe $end
$var wire 1 * Y~output_o $end
$var wire 1 + x~input_o $end
$var wire 1 , clk~input_o $end
$var wire 1 - Q0~q $end
$var wire 1 . inst3~combout $end
$var wire 1 / Q1~q $end
$var wire 1 0 inst2~combout $end
$upscope $end
$upscope $end
$enddefinitions $end
#0
$dumpvars
0!
1"
0#
0$
1%
x&
1'
1(
1)
0*
1+
0,
0-
0.
0/
00
$end
#20000
1!
1,
1-
#40000
0!
0,
#60000
1!
1,
#80000
0!
0,
#100000
1!
1,
#120000
0"
0!
0+
0,
1.
#140000
1!
1,
1/
0-
0.
#160000
1"
0!
1+
0,
10
1*
1#
#180000
1!
1,
0/
1-
00
0*
0#
#200000
0"
0!
0+
0,
1.
#220000
1!
1,
1/
0-
0.
#240000
1"
0!
1+
0,
10
1*
1#
#260000
1!
1,
0/
1-
00
0*
0#
#280000
0"
0!
0+
0,
1.
#300000
1!
1,
1/
0-
0.
#320000
0!
0,
#340000
1!
1,
0/
#360000
1"
0!
1+
0,
#380000
1!
1,
1-
#400000
0"
0!
0+
0,
1.
#420000
1!
1,
1/
0-
0.
#440000
1"
0!
1+
0,
10
1*
1#
#460000
1!
1,
0/
1-
00
0*
0#
#480000
0"
0!
0+
0,
1.
#500000
1!
1,
1/
0-
0.
#520000
0!
0,
#540000
1!
1,
0/
#560000
1"
0!
1+
0,
#580000
1!
1,
1-
#600000
0"
0!
0+
0,
1.
#620000
1!
1,
1/
0-
0.
#640000
1"
0!
1+
0,
10
1*
1#
#660000
1!
1,
0/
1-
00
0*
0#
#680000
0!
0,
#700000
0"
1!
0+
1,
1.
0-
0.
#720000
0!
0,
#740000
1"
1!
1+
1,
1-
#760000
0!
0,
#780000
1!
1,
#800000
0!
0,
#820000
1!
1,
#840000
0!
0,
#860000
1!
1,
#880000
0!
0,
#900000
1!
1,
#920000
0!
0,
#940000
1!
1,
#960000
0!
0,
#980000
1!
1,
