Avaliacao/Recurso/Pratico/simulation/qsim/Problems.msim.vcd
$comment
	File created using the following command:
		vcd file Problems.msim.vcd -direction
$end
$date
	Wed Feb 08 17:24:31 2023
$end
$version
	ModelSim Version 2020.1
$end
$timescale
	1ps
$end

$scope module p3_vlg_vec_tst $end
$var reg 1 ! CLK $end
$var wire 1 " Y $end

$scope module i1 $end
$var wire 1 # gnd $end
$var wire 1 $ vcc $end
$var wire 1 % unknown $end
$var tri1 1 & devclrn $end
$var tri1 1 ' devpor $end
$var tri1 1 ( devoe $end
$var wire 1 ) Y~output_o $end
$var wire 1 * CLK~input_o $end
$var wire 1 + inst|sub|34~0_combout $end
$var wire 1 , inst|sub|34~q $end
$var wire 1 - inst|sub|115~combout $end
$var wire 1 . inst|sub|111~q $end
$var wire 1 / inst|sub|126~combout $end
$var wire 1 0 inst|sub|122~q $end
$var wire 1 1 inst|sub|137~combout $end
$var wire 1 2 inst|sub|134~q $end
$var wire 1 3 inst5|sub|34~0_combout $end
$var wire 1 4 inst5|sub|34~q $end
$var wire 1 5 inst5|sub|111~0_combout $end
$var wire 1 6 inst5|sub|111~q $end
$upscope $end
$upscope $end
$enddefinitions $end
#0
$dumpvars
0!
0"
0#
1$
x%
1&
1'
1(
0)
0*
1+
0,
0-
0.
0/
00
01
02
03
04
05
06
$end
#2500
1!
1*
1,
1-
0+
#5000
0!
0*
#7500
1!
1*
1.
0,
1+
#10000
0!
0*
#12500
1!
1*
1,
1/
0-
0+
#15000
0!
0*
#17500
1!
1*
10
0.
0,
1+
#20000
0!
0*
#22500
1!
1*
1,
1-
0+
#25000
0!
0*
#27500
1!
1*
1.
0,
1+
#30000
0!
0*
#32500
1!
1*
1,
11
0/
0-
0+
#35000
0!
0*
#37500
1!
1*
12
00
0.
0,
1+
#40000
0!
0*
#42500
1!
1*
1,
13
01
0+
#45000
0!
0*
#47500
1!
1*
14
02
0,
1+
#50000
0!
0*
#52500
1!
1*
1,
1-
0+
#55000
0!
0*
#57500
1!
1*
1.
0,
1+
#60000
0!
0*
#62500
1!
1*
1,
1/
0-
0+
#65000
0!
0*
#67500
1!
1*
10
0.
0,
1+
#70000
0!
0*
#72500
1!
1*
1,
1-
0+
#75000
0!
0*
#77500
1!
1*
1.
0,
1+
#80000
0!
0*
#82500
1!
1*
1,
11
0/
0-
0+
#85000
0!
0*
#87500
1!
1*
12
00
0.
0,
1+
#90000
0!
0*
#92500
1!
1*
1,
15
03
01
0+
#95000
0!
0*
#97500
1!
1*
04
02
0,
16
1)
1"
1+
#100000
0!
0*
#102500
1!
1*
1,
1-
0+
#105000
0!
0*
#107500
1!
1*
1.
0,
1+
#110000
0!
0*
#112500
1!
1*
1,
1/
0-
0+
#115000
0!
0*
#117500
1!
1*
10
0.
0,
1+
#120000
0!
0*
#122500
1!
1*
1,
1-
0+
#125000
0!
0*
#127500
1!
1*
1.
0,
1+
#130000
0!
0*
#132500
1!
1*
1,
11
0/
0-
0+
#135000
0!
0*
#137500
1!
1*
12
00
0.
0,
1+
#140000
0!
0*
#142500
1!
1*
1,
13
01
0+
#145000
0!
0*
#147500
1!
1*
14
02
0,
1+
#150000
0!
0*
#152500
1!
1*
1,
1-
0+
#155000
0!
0*
#157500
1!
1*
1.
0,
1+
#160000
0!
0*
#162500
1!
1*
1,
1/
0-
0+
#165000
0!
0*
#167500
1!
1*
10
0.
0,
1+
#170000
0!
0*
#172500
1!
1*
1,
1-
0+
#175000
0!
0*
#177500
1!
1*
1.
0,
1+
#180000
0!
0*
#182500
1!
1*
1,
11
0/
0-
0+
#185000
0!
0*
#187500
1!
1*
12
00
0.
0,
1+
#190000
0!
0*
#192500
1!
1*
1,
05
03
01
0+
#195000
0!
0*
#197500
1!
1*
04
02
0,
06
0)
0"
1+
#200000
0!
0*
#202500
1!
1*
1,
1-
0+
#205000
0!
0*
#207500
1!
1*
1.
0,
1+
#210000
0!
0*
#212500
1!
1*
1,
1/
0-
0+
#215000
0!
0*
#217500
1!
1*
10
0.
0,
1+
#220000
0!
0*
#222500
1!
1*
1,
1-
0+
#225000
0!
0*
#227500
1!
1*
1.
0,
1+
#230000
0!
0*
#232500
1!
1*
1,
11
0/
0-
0+
#235000
0!
0*
#237500
1!
1*
12
00
0.
0,
1+
#240000
0!
0*
#242500
1!
1*
1,
13
01
0+
#245000
0!
0*
#247500
1!
1*
14
02
0,
1+
#250000
0!
0*
#252500
1!
1*
1,
1-
0+
#255000
0!
0*
#257500
1!
1*
1.
0,
1+
#260000
0!
0*
#262500
1!
1*
1,
1/
0-
0+
#265000
0!
0*
#267500
1!
1*
10
0.
0,
1+
#270000
0!
0*
#272500
1!
1*
1,
1-
0+
#275000
0!
0*
#277500
1!
1*
1.
0,
1+
#280000
0!
0*
#282500
1!
1*
1,
11
0/
0-
0+
#285000
0!
0*
#287500
1!
1*
12
00
0.
0,
1+
#290000
0!
0*
#292500
1!
1*
1,
15
03
01
0+
#295000
0!
0*
#297500
1!
1*
04
02
0,
16
1)
1"
1+
#300000
0!
0*
#302500
1!
1*
1,
1-
0+
#305000
0!
0*
#307500
1!
1*
1.
0,
1+
#310000
0!
0*
#312500
1!
1*
1,
1/
0-
0+
#315000
0!
0*
#317500
1!
1*
10
0.
0,
1+
#320000
0!
0*
#322500
1!
1*
1,
1-
0+
#325000
0!
0*
#327500
1!
1*
1.
0,
1+
#330000
0!
0*
#332500
1!
1*
1,
11
0/
0-
0+
#335000
0!
0*
#337500
1!
1*
12
00
0.
0,
1+
#340000
0!
0*
#342500
1!
1*
1,
13
01
0+
#345000
0!
0*
#347500
1!
1*
14
02
0,
1+
#350000
0!
0*
#352500
1!
1*
1,
1-
0+
#355000
0!
0*
#357500
1!
1*
1.
0,
1+
#360000
0!
0*
#362500
1!
1*
1,
1/
0-
0+
#365000
0!
0*
#367500
1!
1*
10
0.
0,
1+
#370000
0!
0*
#372500
1!
1*
1,
1-
0+
#375000
0!
0*
#377500
1!
1*
1.
0,
1+
#380000
0!
0*
#382500
1!
1*
1,
11
0/
0-
0+
#385000
0!
0*
#387500
1!
1*
12
00
0.
0,
1+
#390000
0!
0*
#392500
1!
1*
1,
05
03
01
0+
#395000
0!
0*
#397500
1!
1*
04
02
0,
06
0)
0"
1+
#400000
0!
0*
#402500
1!
1*
1,
1-
0+
#405000
0!
0*
#407500
1!
1*
1.
0,
1+
#410000
0!
0*
#412500
1!
1*
1,
1/
0-
0+
#415000
0!
0*
#417500
1!
1*
10
0.
0,
1+
#420000
0!
0*
#422500
1!
1*
1,
1-
0+
#425000
0!
0*
#427500
1!
1*
1.
0,
1+
#430000
0!
0*
#432500
1!
1*
1,
11
0/
0-
0+
#435000
0!
0*
#437500
1!
1*
12
00
0.
0,
1+
#440000
0!
0*
#442500
1!
1*
1,
13
01
0+
#445000
0!
0*
#447500
1!
1*
14
02
0,
1+
#450000
0!
0*
#452500
1!
1*
1,
1-
0+
#455000
0!
0*
#457500
1!
1*
1.
0,
1+
#460000
0!
0*
#462500
1!
1*
1,
1/
0-
0+
#465000
0!
0*
#467500
1!
1*
10
0.
0,
1+
#470000
0!
0*
#472500
1!
1*
1,
1-
0+
#475000
0!
0*
#477500
1!
1*
1.
0,
1+
#480000
0!
0*
#482500
1!
1*
1,
11
0/
0-
0+
#485000
0!
0*
#487500
1!
1*
12
00
0.
0,
1+
#490000
0!
0*
#492500
1!
1*
1,
15
03
01
0+
#495000
0!
0*
#497500
1!
1*
04
02
0,
16
1)
1"
1+
#500000
0!
0*
#502500
1!
1*
1,
1-
0+
#505000
0!
0*
#507500
1!
1*
1.
0,
1+
#510000
0!
0*
#512500
1!
1*
1,
1/
0-
0+
#515000
0!
0*
#517500
1!
1*
10
0.
0,
1+
#520000
0!
0*
#522500
1!
1*
1,
1-
0+
#525000
0!
0*
#527500
1!
1*
1.
0,
1+
#530000
0!
0*
#532500
1!
1*
1,
11
0/
0-
0+
#535000
0!
0*
#537500
1!
1*
12
00
0.
0,
1+
#540000
0!
0*
#542500
1!
1*
1,
13
01
0+
#545000
0!
0*
#547500
1!
1*
14
02
0,
1+
#550000
0!
0*
#552500
1!
1*
1,
1-
0+
#555000
0!
0*
#557500
1!
1*
1.
0,
1+
#560000
0!
0*
#562500
1!
1*
1,
1/
0-
0+
#565000
0!
0*
#567500
1!
1*
10
0.
0,
1+
#570000
0!
0*
#572500
1!
1*
1,
1-
0+
#575000
0!
0*
#577500
1!
1*
1.
0,
1+
#580000
0!
0*
#582500
1!
1*
1,
11
0/
0-
0+
#585000
0!
0*
#587500
1!
1*
12
00
0.
0,
1+
#590000
0!
0*
#592500
1!
1*
1,
05
03
01
0+
#595000
0!
0*
#597500
1!
1*
04
02
0,
06
0)
0"
1+
#600000
0!
0*
#602500
1!
1*
1,
1-
0+
#605000
0!
0*
#607500
1!
1*
1.
0,
1+
#610000
0!
0*
#612500
1!
1*
1,
1/
0-
0+
#615000
0!
0*
#617500
1!
1*
10
0.
0,
1+
#620000
0!
0*
#622500
1!
1*
1,
1-
0+
#625000
0!
0*
#627500
1!
1*
1.
0,
1+
#630000
0!
0*
#632500
1!
1*
1,
11
0/
0-
0+
#635000
0!
0*
#637500
1!
1*
12
00
0.
0,
1+
#640000
0!
0*
#642500
1!
1*
1,
13
01
0+
#645000
0!
0*
#647500
1!
1*
14
02
0,
1+
#650000
0!
0*
#652500
1!
1*
1,
1-
0+
#655000
0!
0*
#657500
1!
1*
1.
0,
1+
#660000
0!
0*
#662500
1!
1*
1,
1/
0-
0+
#665000
0!
0*
#667500
1!
1*
10
0.
0,
1+
#670000
0!
0*
#672500
1!
1*
1,
1-
0+
#675000
0!
0*
#677500
1!
1*
1.
0,
1+
#680000
0!
0*
#682500
1!
1*
1,
11
0/
0-
0+
#685000
0!
0*
#687500
1!
1*
12
00
0.
0,
1+
#690000
0!
0*
#692500
1!
1*
1,
15
03
01
0+
#695000
0!
0*
#697500
1!
1*
04
02
0,
16
1)
1"
1+
#700000
0!
0*
#702500
1!
1*
1,
1-
0+
#705000
0!
0*
#707500
1!
1*
1.
0,
1+
#710000
0!
0*
#712500
1!
1*
1,
1/
0-
0+
#715000
0!
0*
#717500
1!
1*
10
0.
0,
1+
#720000
0!
0*
#722500
1!
1*
1,
1-
0+
#725000
0!
0*
#727500
1!
1*
1.
0,
1+
#730000
0!
0*
#732500
1!
1*
1,
11
0/
0-
0+
#735000
0!
0*
#737500
1!
1*
12
00
0.
0,
1+
#740000
0!
0*
#742500
1!
1*
1,
13
01
0+
#745000
0!
0*
#747500
1!
1*
14
02
0,
1+
#750000
0!
0*
#752500
1!
1*
1,
1-
0+
#755000
0!
0*
#757500
1!
1*
1.
0,
1+
#760000
0!
0*
#762500
1!
1*
1,
1/
0-
0+
#765000
0!
0*
#767500
1!
1*
10
0.
0,
1+
#770000
0!
0*
#772500
1!
1*
1,
1-
0+
#775000
0!
0*
#777500
1!
1*
1.
0,
1+
#780000
0!
0*
#782500
1!
1*
1,
11
0/
0-
0+
#785000
0!
0*
#787500
1!
1*
12
00
0.
0,
1+
#790000
0!
0*
#792500
1!
1*
1,
05
03
01
0+
#795000
0!
0*
#797500
1!
1*
04
02
0,
06
0)
0"
1+
#800000
0!
0*
#802500
1!
1*
1,
1-
0+
#805000
0!
0*
#807500
1!
1*
1.
0,
1+
#810000
0!
0*
#812500
1!
1*
1,
1/
0-
0+
#815000
0!
0*
#817500
1!
1*
10
0.
0,
1+
#820000
0!
0*
#822500
1!
1*
1,
1-
0+
#825000
0!
0*
#827500
1!
1*
1.
0,
1+
#830000
0!
0*
#832500
1!
1*
1,
11
0/
0-
0+
#835000
0!
0*
#837500
1!
1*
12
00
0.
0,
1+
#840000
0!
0*
#842500
1!
1*
1,
13
01
0+
#845000
0!
0*
#847500
1!
1*
14
02
0,
1+
#850000
0!
0*
#852500
1!
1*
1,
1-
0+
#855000
0!
0*
#857500
1!
1*
1.
0,
1+
#860000
0!
0*
#862500
1!
1*
1,
1/
0-
0+
#865000
0!
0*
#867500
1!
1*
10
0.
0,
1+
#870000
0!
0*
#872500
1!
1*
1,
1-
0+
#875000
0!
0*
#877500
1!
1*
1.
0,
1+
#880000
0!
0*
#882500
1!
1*
1,
11
0/
0-
0+
#885000
0!
0*
#887500
1!
1*
12
00
0.
0,
1+
#890000
0!
0*
#892500
1!
1*
1,
15
03
01
0+
#895000
0!
0*
#897500
1!
1*
04
02
0,
16
1)
1"
1+
#900000
0!
0*
#902500
1!
1*
1,
1-
0+
#905000
0!
0*
#907500
1!
1*
1.
0,
1+
#910000
0!
0*
#912500
1!
1*
1,
1/
0-
0+
#915000
0!
0*
#917500
1!
1*
10
0.
0,
1+
#920000
0!
0*
#922500
1!
1*
1,
1-
0+
#925000
0!
0*
#927500
1!
1*
1.
0,
1+
#930000
0!
0*
#932500
1!
1*
1,
11
0/
0-
0+
#935000
0!
0*
#937500
1!
1*
12
00
0.
0,
1+
#940000
0!
0*
#942500
1!
1*
1,
13
01
0+
#945000
0!
0*
#947500
1!
1*
14
02
0,
1+
#950000
0!
0*
#952500
1!
1*
1,
1-
0+
#955000
0!
0*
#957500
1!
1*
1.
0,
1+
#960000
0!
0*
#962500
1!
1*
1,
1/
0-
0+
#965000
0!
0*
#967500
1!
1*
10
0.
0,
1+
#970000
0!
0*
#972500
1!
1*
1,
1-
0+
#975000
0!
0*
#977500
1!
1*
1.
0,
1+
#980000
0!
0*
#982500
1!
1*
1,
11
0/
0-
0+
#985000
0!
0*
#987500
1!
1*
12
00
0.
0,
1+
#990000
0!
0*
#992500
1!
1*
1,
05
03
01
0+
#995000
0!
0*
#997500
1!
1*
04
02
0,
06
0)
0"
1+
