Avaliacao/TP3_S2/S2_meu/simulation/qsim/ISDSim2.msim.vcd
$comment
	File created using the following command:
		vcd file ISDSim2.msim.vcd -direction
$end
$date
	Thu Jan 05 18:44:37 2023
$end
$version
	ModelSim Version 2020.1
$end
$timescale
	1ps
$end

$scope module MDetSeq_vlg_vec_tst $end
$var reg 1 ! CLK $end
$var reg 4 " X [3:0] $end
$var wire 1 # Y $end

$scope module i1 $end
$var wire 1 $ gnd $end
$var wire 1 % vcc $end
$var wire 1 & unknown $end
$var tri1 1 ' devclrn $end
$var tri1 1 ( devpor $end
$var tri1 1 ) devoe $end
$var wire 1 * Y~output_o $end
$var wire 1 + CLK~input_o $end
$var wire 1 , X[3]~input_o $end
$var wire 1 - inst|38~q $end
$var wire 1 . X[2]~input_o $end
$var wire 1 / inst|39~q $end
$var wire 1 0 X[1]~input_o $end
$var wire 1 1 inst|40~q $end
$var wire 1 2 X[0]~input_o $end
$var wire 1 3 inst|41~q $end
$var wire 1 4 inst9~combout $end
$upscope $end
$upscope $end
$enddefinitions $end
#0
$dumpvars
0!
b11 "
0#
0$
1%
x&
1'
1(
1)
0*
0+
0,
0-
0.
0/
10
01
12
03
04
$end
#10000
1!
1+
13
11
#20000
0!
0+
#30000
1!
1+
#40000
b1011 "
b1001 "
b1000 "
0!
02
00
1,
0+
#50000
1!
1+
03
01
1-
#60000
0!
0+
#70000
1!
1+
#80000
b1100 "
0!
1.
0+
#90000
1!
1+
1/
#100000
0!
0+
#110000
1!
1+
#120000
b100 "
b110 "
b111 "
0!
12
10
0,
0+
#130000
1!
1+
13
11
0-
#140000
0!
0+
#150000
1!
1+
#160000
b11 "
0!
0.
0+
#170000
1!
1+
0/
#180000
0!
0+
#190000
1!
1+
#200000
b10 "
b110 "
0!
02
1.
0+
#210000
1!
1+
03
1/
14
1*
1#
#220000
0!
0+
#230000
1!
1+
#240000
b1110 "
b1100 "
0!
00
1,
0+
#250000
1!
1+
01
1-
04
0*
0#
#260000
0!
0+
#270000
1!
1+
#280000
b1000 "
b0 "
b10 "
0!
10
0.
0,
0+
#290000
1!
1+
11
0/
0-
#300000
0!
0+
#310000
1!
1+
#320000
b11 "
0!
12
0+
#330000
1!
1+
13
#340000
0!
0+
#350000
1!
1+
#360000
b111 "
b101 "
b100 "
0!
02
00
1.
0+
#370000
1!
1+
03
01
1/
#380000
0!
0+
#390000
1!
1+
#400000
b1100 "
0!
1,
0+
#410000
1!
1+
1-
#420000
0!
0+
#430000
1!
1+
#440000
b1110 "
0!
10
0+
#450000
1!
1+
11
#460000
0!
0+
#470000
1!
1+
#480000
b1010 "
0!
0.
0+
#490000
1!
1+
0/
#500000
0!
0+
#510000
1!
1+
#520000
b1011 "
b11 "
0!
12
0,
0+
#530000
1!
1+
13
0-
#540000
0!
0+
#550000
1!
1+
#560000
b1 "
b101 "
b100 "
0!
02
00
1.
0+
#570000
1!
1+
03
01
1/
#580000
0!
0+
#590000
1!
1+
#600000
b1100 "
b1101 "
0!
12
1,
0+
#610000
1!
1+
13
1-
#620000
0!
0+
#630000
1!
1+
#640000
b1001 "
0!
0.
0+
#650000
1!
1+
0/
14
1*
1#
#660000
0!
0+
#670000
1!
1+
#680000
b1011 "
0!
10
0+
#690000
1!
1+
11
04
0*
0#
#700000
0!
0+
#710000
1!
1+
#720000
b1010 "
b1000 "
0!
02
00
0+
#730000
1!
1+
03
01
#740000
0!
0+
#750000
1!
1+
#760000
b1001 "
0!
12
0+
#770000
1!
1+
13
14
1*
1#
#780000
0!
0+
#790000
1!
1+
#800000
b1000 "
0!
02
0+
#810000
1!
1+
03
04
0*
0#
#820000
0!
0+
#830000
1!
1+
#840000
b0 "
b10 "
b11 "
0!
12
10
0,
0+
#850000
1!
1+
13
11
0-
#860000
0!
0+
#870000
1!
1+
#880000
b1 "
b0 "
0!
02
00
0+
#890000
1!
1+
03
01
#900000
0!
0+
#910000
1!
1+
#920000
b100 "
b1100 "
b1101 "
0!
12
1.
1,
0+
#930000
1!
1+
13
1/
1-
#940000
0!
0+
#950000
1!
1+
#960000
b1001 "
0!
0.
0+
#970000
1!
1+
0/
14
1*
1#
#980000
0!
0+
#990000
1!
1+
