Praticas/P6/Parte3/simulation/qsim/EncoderDemo.msim.vcd
$comment
	File created using the following command:
		vcd file EncoderDemo.msim.vcd -direction
$end
$date
	Wed Nov 09 23:37:35 2022
$end
$version
	ModelSim Version 2020.1
$end
$timescale
	1ps
$end

$scope module EncoderDemo_vlg_vec_tst $end
$var reg 1 ! E_L $end
$var reg 1 " X0 $end
$var reg 1 # X1 $end
$var reg 1 $ X2 $end
$var reg 1 % X3 $end
$var reg 1 & X4 $end
$var reg 1 ' X5 $end
$var reg 1 ( X6 $end
$var reg 1 ) X7 $end
$var wire 1 * OS_L $end
$var wire 1 + Y0 $end
$var wire 1 , Y1 $end
$var wire 1 - Y2 $end

$scope module i1 $end
$var wire 1 . gnd $end
$var wire 1 / vcc $end
$var wire 1 0 unknown $end
$var tri1 1 1 devclrn $end
$var tri1 1 2 devpor $end
$var tri1 1 3 devoe $end
$var wire 1 4 Y2~output_o $end
$var wire 1 5 Y1~output_o $end
$var wire 1 6 Y0~output_o $end
$var wire 1 7 OS_L~output_o $end
$var wire 1 8 X6~input_o $end
$var wire 1 9 X4~input_o $end
$var wire 1 : X7~input_o $end
$var wire 1 ; X5~input_o $end
$var wire 1 < PEnc8_3|and8~0_combout $end
$var wire 1 = X3~input_o $end
$var wire 1 > X2~input_o $end
$var wire 1 ? PEnc8_3|or4_2~0_combout $end
$var wire 1 @ PEnc8_3|or4_2~1_combout $end
$var wire 1 A X1~input_o $end
$var wire 1 B PEnc8_3|or4_1~0_combout $end
$var wire 1 C PEnc8_3|or4_1~1_combout $end
$var wire 1 D E_L~input_o $end
$var wire 1 E X0~input_o $end
$var wire 1 F PEnc8_3|and8~1_combout $end
$var wire 1 G PEnc8_3|or2~combout $end
$upscope $end
$upscope $end
$enddefinitions $end
#0
$dumpvars
0!
0"
0#
1$
1%
1&
1'
1(
1)
0*
1+
1,
1-
0.
1/
x0
11
12
13
14
15
16
07
18
19
1:
1;
0<
1=
1>
0?
1@
0A
0B
1C
0D
0E
0F
0G
$end
#25000
1!
0(
0&
0$
1#
1D
08
09
0>
1A
1B
1G
17
1*
#50000
0)
1"
1(
1&
0#
0:
1E
18
19
0A
0B
0C
06
0+
#75000
1)
0"
0(
1#
1:
0E
08
1A
1C
16
1+
#100000
0'
0%
0&
0)
0#
0;
0=
09
0:
0A
1<
1F
0C
0@
05
06
04
0-
0+
0,
#125000
0!
0D
#150000
1%
1&
1=
19
0F
0<
14
1-
0G
07
0*
#175000
1#
0%
1A
0=
#200000
1$
1)
0&
0#
1>
1:
09
0A
1?
1C
1@
15
16
1+
1,
#225000
1"
1(
1!
0$
1&
1#
1E
18
1D
0>
19
1A
0?
1G
17
1*
#250000
1'
1$
1;
1>
#275000
1%
0!
0&
0#
1=
0D
09
0A
1B
0G
07
0*
#300000
0)
0"
0(
0'
0:
0E
08
0;
1<
1?
0@
05
04
0-
0,
1@
15
1,
#325000
0$
0%
1!
1&
1#
1(
1'
0>
0=
1D
19
1A
18
1;
0B
0?
0<
1G
0C
06
17
14
1-
1*
0+
#350000
1)
1$
0#
0(
1:
1>
0A
08
1C
16
1+
#375000
0!
1(
0D
18
0G
07
0*
#400000
1"
0$
1!
0(
1E
0>
1D
08
1G
17
1*
#425000
0&
0!
1(
09
0D
18
0G
07
0*
#450000
0'
1#
1$
1!
0;
1A
1>
1D
1?
1G
17
1*
#475000
1%
0"
0(
1'
0$
1=
0E
08
1;
0>
1B
0?
#500000
0)
1&
0!
1(
0:
19
0D
18
0B
0C
0G
07
06
0+
0*
#525000
0'
1$
1)
0;
1>
1:
1C
16
1+
#550000
0#
1!
1'
0$
0)
0A
1D
1;
0>
0:
1G
0C
06
17
1*
0+
#575000
1"
0&
0'
1$
1)
1E
09
0;
1>
1:
1B
1?
1C
16
1+
#600000
0%
1#
0"
1&
1'
0=
1A
0E
19
1;
0B
0?
#625000
0(
0$
0)
1"
0&
0'
08
0>
0:
1E
09
0;
1<
1B
0C
0@
05
06
04
0-
0+
0,
1C
16
1+
#650000
0#
1$
0"
1&
1'
0A
1>
0E
19
1;
0B
0<
14
1-
#675000
1%
1(
1#
0$
1"
1=
18
1A
0>
1E
0C
1@
15
06
0+
1,
#700000
0!
1)
0'
0D
1:
0;
0G
1C
16
07
0*
1+
#725000
0%
0#
0"
1!
0)
0=
0A
0E
1D
0:
1F
1G
0C
06
17
1*
0+
#750000
0&
1$
1'
1%
1"
0!
09
1>
1;
1=
1E
0D
1B
0F
0G
07
0*
#775000
0(
1)
0$
0%
1!
08
1:
0>
0=
1D
0B
1C
1G
17
16
1+
1*
#800000
1#
0"
0)
1$
1A
0E
0:
1>
0@
05
0,
#825000
0'
1(
0!
0#
1"
1)
0$
0;
18
0D
0A
1E
1:
0>
1@
0G
07
15
1,
0*
#850000
1'
1!
1#
0)
1;
1D
1A
0:
1B
0C
1G
17
06
0+
1*
#875000
1&
0(
0"
0!
1)
19
08
0E
0D
1:
0B
1C
0G
07
16
1+
0*
#900000
0'
1(
1"
1!
0;
18
1E
1D
1G
17
1*
#925000
1%
1$
0&
0)
1'
0(
0"
0!
1=
1>
09
0:
1;
08
0E
0D
1B
0@
0G
07
05
0,
0*
#950000
1)
0'
1(
1"
1!
1:
0;
18
1E
1D
1?
1@
1G
17
15
1,
1*
#975000
0%
0)
0(
0!
0=
0:
08
0D
0B
1<
0G
07
04
0-
0*
0C
06
0+
