Praticas/P6/Resolucao/Parte1/simulation/qsim/DecoderDemo.msim.vcd
$comment
	File created using the following command:
		vcd file DecoderDemo.msim.vcd -direction
$end
$date
	Wed Nov 23 19:09:13 2022
$end
$version
	ModelSim Version 2020.1
$end
$timescale
	1ps
$end

$scope module DecDemo3_vlg_vec_tst $end
$var reg 1 ! E0_L $end
$var reg 1 " E1 $end
$var reg 1 # X0 $end
$var reg 1 $ X1 $end
$var reg 1 % X2 $end
$var reg 1 & X3 $end
$var wire 1 ' F $end

$scope module i1 $end
$var wire 1 ( gnd $end
$var wire 1 ) vcc $end
$var wire 1 * unknown $end
$var tri1 1 + devclrn $end
$var tri1 1 , devpor $end
$var tri1 1 - devoe $end
$var wire 1 . F~output_o $end
$var wire 1 / X3~input_o $end
$var wire 1 0 X1~input_o $end
$var wire 1 1 X2~input_o $end
$var wire 1 2 X0~input_o $end
$var wire 1 3 2~0_combout $end
$var wire 1 4 E1~input_o $end
$var wire 1 5 E0_L~input_o $end
$var wire 1 6 2~1_combout $end
$upscope $end
$upscope $end
$enddefinitions $end
#0
$dumpvars
0!
1"
0#
0$
0%
0&
0'
0(
1)
x*
1+
1,
1-
0.
0/
00
01
02
03
14
05
06
$end
#50000
1#
12
#100000
1$
0#
10
02
#150000
1#
12
#200000
1%
0$
0#
11
00
02
#250000
1#
12
#300000
1$
0#
10
02
13
16
1.
1'
#350000
1#
12
#400000
1&
0%
0$
0#
1/
01
00
02
03
06
0.
0'
#450000
1#
12
13
16
1.
1'
#500000
1$
0#
10
02
#550000
1#
12
#600000
1%
0$
0#
11
00
02
03
06
0.
0'
#650000
1#
12
13
16
1.
1'
#700000
1$
0#
10
02
#750000
1#
12
#800000
0&
0%
0$
0#
0/
01
00
02
03
06
0.
0'
#850000
1#
12
#900000
1$
0#
10
02
#950000
1#
12
