Praticas/P6/Resolucao/Parte3/simulation/qsim/EncoderDemo.msim.vcd
$comment
	File created using the following command:
		vcd file EncoderDemo.msim.vcd -direction
$end
$date
	Wed Nov 23 21:25:36 2022
$end
$version
	ModelSim Version 2020.1
$end
$timescale
	1ps
$end

$scope module PEnc8_3_vlg_vec_tst $end
$var reg 1 ! E_L $end
$var reg 1 " X0 $end
$var reg 1 # X1 $end
$var reg 1 $ X2 $end
$var reg 1 % X3 $end
$var reg 1 & X4 $end
$var reg 1 ' X5 $end
$var reg 1 ( X6 $end
$var reg 1 ) X7 $end
$var wire 1 * OS_L $end
$var wire 1 + Y0 $end
$var wire 1 , Y1 $end
$var wire 1 - Y2 $end

$scope module i1 $end
$var wire 1 . gnd $end
$var wire 1 / vcc $end
$var wire 1 0 unknown $end
$var tri1 1 1 devclrn $end
$var tri1 1 2 devpor $end
$var tri1 1 3 devoe $end
$var wire 1 4 Y2~output_o $end
$var wire 1 5 Y0~output_o $end
$var wire 1 6 Y1~output_o $end
$var wire 1 7 OS_L~output_o $end
$var wire 1 8 E_L~input_o $end
$var wire 1 9 X4~input_o $end
$var wire 1 : X5~input_o $end
$var wire 1 ; X6~input_o $end
$var wire 1 < X7~input_o $end
$var wire 1 = inst10~0_combout $end
$var wire 1 > 11~0_combout $end
$var wire 1 ? 13~0_combout $end
$var wire 1 @ X3~input_o $end
$var wire 1 A X1~input_o $end
$var wire 1 B X2~input_o $end
$var wire 1 C 13~1_combout $end
$var wire 1 D 13~2_combout $end
$var wire 1 E 12~0_combout $end
$var wire 1 F 12~1_combout $end
$var wire 1 G X0~input_o $end
$var wire 1 H inst10~1_combout $end
$var wire 1 I 14~combout $end
$upscope $end
$upscope $end
$enddefinitions $end
#0
$dumpvars
0!
0"
0#
0$
0%
0&
0'
0(
0)
1*
0+
0,
0-
0.
1/
x0
11
12
13
04
05
06
17
08
09
0:
0;
0<
1=
0>
0?
0@
0A
0B
0C
0D
0E
0F
0G
1H
1I
$end
#10000
1)
1<
1?
0=
1F
16
1,
1D
0I
1>
14
07
15
1+
0*
1-
#80000
1(
0)
1;
0<
0?
0D
05
0+
#160000
0(
0;
1=
0F
06
0,
1I
0>
04
17
1*
0-
#170000
1'
1:
1?
0=
1D
0I
1>
14
07
15
1+
0*
1-
#230000
1!
18
0?
1I
0>
04
17
1*
0-
0D
05
0+
#260000
0'
0:
1=
#300000
1&
19
0=
#370000
0!
08
0I
1>
14
07
0*
1-
#400000
0&
09
1=
1I
0>
04
17
1*
0-
#410000
1%
1@
0H
1E
1C
0I
1F
1D
15
16
07
0*
1,
1+
#520000
0%
0@
1H
0E
0C
1I
0F
0D
05
06
17
1*
0,
0+
#530000
1$
1B
0H
1E
0I
1F
16
07
0*
1,
#630000
0$
0B
1H
0E
1I
0F
06
17
1*
0,
#640000
1#
1A
0H
1C
0I
1D
15
07
0*
1+
#760000
0#
0A
1H
0C
1I
0D
05
17
1*
0+
#770000
1"
1G
0H
0I
07
0*
#880000
0"
0G
1H
1I
17
1*
