Praticas/P8/Ex8_extra/simulation/qsim/CmpDemoMAX.msim.vcd
$comment
	File created using the following command:
		vcd file CmpDemoMAX.msim.vcd -direction
$end
$date
	Fri Nov 18 17:15:23 2022
$end
$version
	ModelSim Version 2020.1
$end
$timescale
	1ps
$end

$scope module CmpDemoMAX_vlg_vec_tst $end
$var reg 4 ! A [3:0] $end
$var reg 4 " B [3:0] $end
$var wire 1 # Xout $end
$var wire 1 $ Yout $end
$var wire 1 % Zout $end

$scope module i1 $end
$var wire 1 & gnd $end
$var wire 1 ' vcc $end
$var wire 1 ( unknown $end
$var tri1 1 ) devclrn $end
$var tri1 1 * devpor $end
$var tri1 1 + devoe $end
$var wire 1 , Xout~output_o $end
$var wire 1 - Yout~output_o $end
$var wire 1 . Zout~output_o $end
$var wire 1 / A[3]~input_o $end
$var wire 1 0 A[2]~input_o $end
$var wire 1 1 B[2]~input_o $end
$var wire 1 2 B[3]~input_o $end
$var wire 1 3 inst|inst7|inst9~0_combout $end
$var wire 1 4 A[1]~input_o $end
$var wire 1 5 inst|inst7|inst10~0_combout $end
$var wire 1 6 B[1]~input_o $end
$var wire 1 7 inst|inst8|inst9~combout $end
$var wire 1 8 A[0]~input_o $end
$var wire 1 9 inst|inst8|inst10~combout $end
$var wire 1 : B[0]~input_o $end
$var wire 1 ; inst|inst9|inst9~combout $end
$var wire 1 < inst|inst9|inst3~0_combout $end
$var wire 1 = inst|inst9|inst3~1_combout $end
$var wire 1 > inst|inst9|inst3~combout $end
$var wire 1 ? inst|inst9|inst10~combout $end
$upscope $end
$upscope $end
$enddefinitions $end
#0
$dumpvars
b1001 !
b1110 "
0#
0$
1%
0&
1'
x(
1)
1*
1+
0,
0-
1.
1/
00
11
12
03
04
15
16
07
18
19
0:
0;
1<
1=
1>
1?
$end
#20000
b110 "
b10 "
b11 "
1:
01
02
05
13
09
17
0?
1;
1,
0.
0%
1#
#25000
b1 !
b101 !
b111 !
b110 !
08
14
10
0/
#40000
b1011 "
b1111 "
11
12
15
03
19
07
1?
0;
0,
1.
1%
0#
#50000
b100 !
b101 !
18
04
#60000
b1101 "
b101 "
b1 "
06
01
02
0<
05
13
09
17
0?
1;
1,
0.
0%
1#
#75000
b1101 !
b1100 !
08
1/
1<
#80000
b0 "
0:
0<
#100000
b10 "
b1010 "
b1011 "
1:
16
12
1<
#120000
b1111 "
b111 "
11
02
#125000
b1110 !
14
#140000
b11 "
b1011 "
01
12
#150000
b1010 !
b10 !
b11 !
b1 !
18
04
00
0/
15
03
19
07
1?
0;
0,
1.
1%
0#
#160000
b1001 "
b1101 "
b101 "
06
11
02
0<
#175000
b101 !
b1101 !
b1111 !
14
10
1/
1<
05
13
09
17
0?
1;
1,
0.
0%
1#
#180000
b111 "
b11 "
b1011 "
16
01
12
0<
#200000
b1010 "
b1110 !
b1010 !
b10 !
b0 !
b1000 "
b1100 "
b100 "
08
04
00
0/
0:
06
11
02
15
03
19
07
1?
0;
0,
1.
1%
0#
#220000
b110 "
b1110 "
16
12
1<
#225000
b10 !
14
0<
#240000
b1111 "
b1101 "
b101 "
1:
06
02
1<
#250000
b1010 !
b1000 !
04
1/
05
13
09
17
0?
1;
1,
0.
0%
1#
#260000
b1 "
b1001 "
01
12
0=
03
07
1?
0;
0,
1.
1%
0#
#275000
b1100 !
10
1=
13
17
0?
1;
1,
0.
0%
1#
#280000
b1000 "
b1010 "
b1110 "
b110 "
0:
16
11
02
#300000
b1101 !
b101 !
b111 "
b1111 "
1:
12
18
0/
15
03
19
07
1?
0;
0,
1.
1%
0#
#320000
b1101 "
b1001 "
b1 "
06
01
02
0<
05
13
09
17
0?
1;
1,
0.
0%
1#
#325000
b111 !
b110 !
b1110 !
08
14
1/
1<
#340000
b0 "
0:
#350000
b1010 !
b1000 !
b0 !
04
00
0/
0<
0=
03
0>
07
1-
1$
0;
0,
0#
#360000
b10 "
b1010 "
b1011 "
1:
16
12
1<
19
1=
15
1?
1.
1>
1%
0-
0$
#375000
b1 !
b11 !
18
14
0<
#380000
b1111 "
b1101 "
b101 "
06
11
02
1<
#420000
b100 "
b0 "
0:
01
0=
05
09
17
0?
1;
1,
0.
0%
1#
#425000
b111 !
b1111 !
b1110 !
08
10
1/
1=
13
#440000
b1 "
1:
#450000
b1100 !
b100 !
04
0/
#460000
b11 "
b1011 "
b1111 "
16
11
12
15
03
19
07
1?
0;
0,
1.
1%
0#
#475000
b101 !
b1101 !
18
1/
0=
05
#480000
b111 "
b11 "
01
02
1=
13
09
17
0?
1;
1,
0.
0%
1#
#500000
b1001 !
b10 "
b1011 !
b11 !
b110 "
0:
11
14
00
0/
15
03
19
07
1?
0;
0,
1.
1%
0#
#520000
b1110 "
b1010 "
01
12
#540000
b1000 "
b1001 "
b1 "
1:
06
02
0=
05
09
17
0?
1;
1,
0.
0%
1#
#550000
b10 !
b110 !
b100 !
08
04
10
07
1=
13
17
1?
0;
0,
1.
1%
0#
0?
1;
1,
0.
0%
1#
#560000
b0 "
0:
0<
#575000
b0 !
00
0=
03
0>
07
1-
1$
0;
0,
0#
#580000
b1000 "
12
1=
15
1>
19
0-
0$
1?
1.
1%
#600000
b1010 "
b1 !
b11 !
b1011 "
b111 !
b11 "
18
14
10
1:
16
02
05
13
09
17
0?
1;
1,
0.
0%
1#
#620000
b111 "
b1111 "
11
12
15
03
19
07
1?
0;
0,
1.
1%
0#
#640000
b1110 "
b1010 "
0:
01
1<
#650000
b1111 !
b1110 !
b1100 !
b1000 !
08
04
00
1/
0=
05
#660000
b10 "
b11 "
1:
02
1=
13
09
17
0?
1;
1,
0.
0%
1#
#675000
b1001 !
b1101 !
18
10
#680000
b111 "
b1111 "
11
12
0=
03
19
07
1?
0;
0,
1.
1%
0#
#700000
b101 !
b100 !
b1011 "
01
08
0/
1=
15
#720000
b1001 "
b1000 "
b0 "
0:
06
02
0<
05
13
09
17
0?
1;
1,
0.
0%
1#
#740000
b10 "
b11 "
b1011 "
1:
16
12
1<
15
03
19
07
1?
0;
0,
1.
1%
0#
#750000
b110 !
b10 !
14
00
#760000
b1001 "
b1000 "
0:
06
#775000
b110 !
10
#780000
b1100 "
b100 "
b110 "
b111 "
1:
16
11
02
0=
05
09
#800000
b1110 !
b1111 !
b1101 !
b1001 !
b11 "
b10 "
0:
01
18
04
00
1/
1=
13
19
0?
1;
1,
0.
09
17
0%
1#
1?
0;
0,
1.
1%
0#
0?
1;
1,
0.
0%
1#
#820000
b0 "
06
#825000
b1011 !
b1111 !
14
10
#840000
b1000 "
b1100 "
b1110 "
16
11
12
0=
03
07
#850000
b111 !
b110 !
b100 !
08
04
0/
19
1=
15
0;
0,
0#
1?
1.
1%
#860000
b110 "
b100 "
06
02
0<
0=
05
0>
09
1-
1$
0?
0.
0%
#875000
b0 !
b10 !
14
00
1<
17
1=
15
1>
19
07
1;
1,
0-
0$
1#
1?
0;
0,
1.
1%
0#
#880000
b101 "
b1 "
b1001 "
1:
01
12
#900000
b1010 !
b1011 "
b1110 !
b1010 "
0:
16
10
1/
0<
05
13
09
17
0?
1;
1,
0.
0%
1#
#920000
b10 "
b11 "
1:
02
1<
#925000
b1111 !
b1101 !
b101 !
18
04
0/
#940000
b111 "
b1111 "
b1110 "
0:
11
12
15
03
19
07
1?
0;
0,
1.
1%
0#
#950000
b100 !
b1100 !
08
1/
0=
05
#960000
b1010 "
b1011 "
1:
01
1=
13
09
17
0?
1;
1,
0.
0%
1#
#975000
b1000 !
b1010 !
b1011 !
18
14
00
0<
0=
03
0>
07
1-
1$
0;
0,
0#
#980000
b11 "
b111 "
b110 "
0:
11
02
1<
1=
13
1;
1,
1>
17
1#
0-
0$
