Praticas/P8/Resolucao/Parte1/simulation/qsim/AddSubDemo.msim.vcd
$comment
	File created using the following command:
		vcd file AddSubDemo.msim.vcd -direction
$end
$date
	Wed Nov 23 22:56:32 2022
$end
$version
	ModelSim Version 2020.1
$end
$timescale
	1ps
$end

$scope module AddSubDemo_vlg_vec_tst $end
$var reg 4 ! A [3:0] $end
$var reg 1 " ADD_SUB $end
$var reg 4 # B [3:0] $end
$var wire 1 $ Cout $end
$var wire 1 % Overflow $end
$var wire 1 & S [3] $end
$var wire 1 ' S [2] $end
$var wire 1 ( S [1] $end
$var wire 1 ) S [0] $end

$scope module i1 $end
$var wire 1 * gnd $end
$var wire 1 + vcc $end
$var wire 1 , unknown $end
$var tri1 1 - devclrn $end
$var tri1 1 . devpor $end
$var tri1 1 / devoe $end
$var wire 1 0 Cout~output_o $end
$var wire 1 1 Overflow~output_o $end
$var wire 1 2 S[3]~output_o $end
$var wire 1 3 S[2]~output_o $end
$var wire 1 4 S[1]~output_o $end
$var wire 1 5 S[0]~output_o $end
$var wire 1 6 B[3]~input_o $end
$var wire 1 7 ADD_SUB~input_o $end
$var wire 1 8 A[3]~input_o $end
$var wire 1 9 B[2]~input_o $end
$var wire 1 : A[2]~input_o $end
$var wire 1 ; A[0]~input_o $end
$var wire 1 < B[0]~input_o $end
$var wire 1 = inst|inst|inst3~combout $end
$var wire 1 > inst|inst|inst4~combout $end
$var wire 1 ? A[1]~input_o $end
$var wire 1 @ B[1]~input_o $end
$var wire 1 A inst|inst5~combout $end
$var wire 1 B inst|inst1|inst5~0_combout $end
$var wire 1 C inst|inst2|inst5~0_combout $end
$var wire 1 D inst|inst3|inst5~0_combout $end
$var wire 1 E inst|231~combout $end
$var wire 1 F inst|inst3|inst2~0_combout $end
$var wire 1 G inst|inst2|inst2~0_combout $end
$var wire 1 H inst|inst1|inst2~combout $end
$var wire 1 I inst|inst|inst2~0_combout $end
$upscope $end
$upscope $end
$enddefinitions $end
#0
$dumpvars
b1 !
0"
b10 #
0$
0%
1)
1(
0'
0&
0*
1+
x,
1-
1.
1/
00
01
02
03
14
15
06
07
08
09
0:
1;
0<
0=
0>
0?
1@
1A
0B
0C
0D
0E
0F
0G
1H
1I
$end
#50000
1"
17
0A
1>
1G
1F
12
13
1'
1&
#100000
b1001 !
b1101 !
b1100 !
0"
0;
1:
18
07
0>
1A
0I
05
0)
#150000
1"
17
1C
0A
1=
0G
0F
1E
1D
10
11
02
03
0'
0&
1%
1$
1F
0E
01
12
1&
0%
#200000
b1110 !
b1010 #
b1110 #
b1111 !
0"
19
16
1;
1?
07
0=
1B
1A
1I
0H
04
15
1)
0(
1G
13
1'
#250000
1"
17
0A
1>
0G
0F
02
03
0'
0&
#300000
b1100 #
b111 !
b11 !
b1 !
b100 #
b0 !
0"
0;
0?
0:
08
0@
06
07
0>
0B
0I
1H
1F
1E
0D
00
11
12
14
05
0C
0)
1(
1&
1%
0$
0H
1G
13
04
0(
1'
0F
0E
01
02
0&
0%
#350000
1"
17
1A
1=
0G
1F
12
03
1B
0'
1&
1G
13
1'
#400000
b101 #
b1 #
b1001 #
b1 !
0"
1;
1<
09
16
07
1>
0=
0A
0B
1H
14
1(
0G
03
0'
#450000
1"
17
1A
0>
1=
1G
0F
02
13
1B
1'
0&
0H
04
1C
0(
0G
03
0'
1F
1E
11
12
1&
1%
#500000
b11 !
b1000 #
b1100 #
b100 #
0"
0<
19
06
1?
07
0=
0A
1I
1H
14
15
0B
1)
1(
0C
1G
13
1'
0F
0E
01
02
0&
0%
#550000
1"
17
1A
1>
0G
1F
12
03
1B
0'
1&
1G
13
1'
#600000
b110 #
b1011 !
b1111 !
b1110 !
b1100 !
0"
0;
0?
1:
18
1@
07
0>
1C
0I
0H
04
05
0B
0)
0(
1H
0F
1D
10
02
14
1(
0&
1$
0G
03
0'
#650000
1"
17
0C
0A
1=
1G
1F
12
13
1'
1&
0F
1E
11
02
0&
1%
#700000
b10 #
b1010 #
b1000 #
b100 !
b101 !
0"
1;
08
0@
09
16
07
0=
1I
1F
0E
0D
00
01
12
15
1)
1&
0%
0$
0H
04
0(
#750000
1"
17
1C
1A
1>
0G
0F
02
03
1B
0'
0&
1F
1E
11
12
1&
1%
1G
13
1'
#800000
b1001 #
b1 !
b11 !
b1011 !
0"
1?
0:
18
1<
07
0C
0A
1H
0E
1D
0I
05
10
01
14
1(
0%
1$
0)
0F
1E
0H
04
11
02
0&
1%
0(
#850000
1"
17
1C
1A
0>
1=
0G
1F
0E
0D
00
01
12
03
0'
1&
0%
0$
0F
1D
1H
14
10
02
0&
1$
1(
#900000
b1010 !
b1110 !
b110 !
0"
0;
1:
08
07
0=
0A
1I
15
0B
1)
0C
1G
13
1'
1F
0D
00
12
1&
0$
#950000
1"
17
1C
1A
0G
0F
02
03
1B
0'
0&
1F
1E
0H
04
11
12
1&
1%
0(
1G
13
1'
