Praticas/P7/Parte 1_2/simulation/qsim/MuxDemo.msim.vcd
$comment
	File created using the following command:
		vcd file MuxDemo.msim.vcd -direction
$end
$date
	Fri Nov 11 10:44:17 2022
$end
$version
	ModelSim Version 2020.1
$end
$timescale
	1ps
$end

$scope module MuxDemo3_vlg_vec_tst $end
$var reg 1 ! A $end
$var reg 1 " B $end
$var reg 1 # C $end
$var reg 1 $ D $end
$var reg 1 % X0 $end
$var reg 1 & X1 $end
$var reg 1 ' X2 $end
$var reg 1 ( X3 $end
$var reg 1 ) X4 $end
$var reg 1 * X5 $end
$var reg 1 + X6 $end
$var reg 1 , X7 $end
$var reg 1 - X8 $end
$var reg 1 . X9 $end
$var reg 1 / X10 $end
$var reg 1 0 X11 $end
$var reg 1 1 X12 $end
$var reg 1 2 X13 $end
$var reg 1 3 X14 $end
$var reg 1 4 X15 $end
$var wire 1 5 F $end

$scope module i1 $end
$var wire 1 6 gnd $end
$var wire 1 7 vcc $end
$var wire 1 8 unknown $end
$var tri1 1 9 devclrn $end
$var tri1 1 : devpor $end
$var tri1 1 ; devoe $end
$var wire 1 < F~output_o $end
$var wire 1 = X10~input_o $end
$var wire 1 > C~input_o $end
$var wire 1 ? X9~input_o $end
$var wire 1 @ D~input_o $end
$var wire 1 A X8~input_o $end
$var wire 1 B inst|inst15|inst~0_combout $end
$var wire 1 C X11~input_o $end
$var wire 1 D inst|inst15|inst~1_combout $end
$var wire 1 E A~input_o $end
$var wire 1 F X5~input_o $end
$var wire 1 G X6~input_o $end
$var wire 1 H X4~input_o $end
$var wire 1 I inst|inst15|inst~2_combout $end
$var wire 1 J X7~input_o $end
$var wire 1 K inst|inst15|inst~3_combout $end
$var wire 1 L B~input_o $end
$var wire 1 M X2~input_o $end
$var wire 1 N X1~input_o $end
$var wire 1 O X0~input_o $end
$var wire 1 P inst|inst15|inst~4_combout $end
$var wire 1 Q X3~input_o $end
$var wire 1 R inst|inst15|inst~5_combout $end
$var wire 1 S inst|inst15|inst~6_combout $end
$var wire 1 T X13~input_o $end
$var wire 1 U X14~input_o $end
$var wire 1 V X12~input_o $end
$var wire 1 W inst|inst15|inst~7_combout $end
$var wire 1 X X15~input_o $end
$var wire 1 Y inst|inst15|inst~8_combout $end
$var wire 1 Z inst|inst15|inst~9_combout $end
$upscope $end
$upscope $end
$enddefinitions $end
#0
$dumpvars
0!
0"
0#
0$
0%
1&
1'
1(
1)
1*
1+
0,
1-
1.
1/
10
11
12
13
14
05
06
17
x8
19
1:
1;
0<
1=
0>
1?
0@
1A
1B
1C
1D
0E
1F
1G
1H
1I
0J
1K
0L
1M
1N
0O
0P
1Q
0R
0S
1T
1U
1V
1W
1X
1Y
0Z
$end
#50000
1$
1@
0W
1P
0K
0I
1R
1K
1S
1Z
1<
15
#100000
1#
0$
1>
0@
1W
0P
1I
0B
0Y
0K
1Y
1K
#150000
1$
1@
1P
0K
1B
#200000
1"
0#
0$
1L
0>
0@
0S
0P
1K
0R
1S
0Z
0<
05
1Z
1<
15
#250000
1$
1@
0W
1P
0K
0I
1R
0S
1K
1S
0Z
0<
05
1Z
1<
15
#300000
1#
0$
1>
0@
1W
0P
1I
0B
0Y
0K
1Y
1K
0S
1S
0Z
0<
05
1Z
1<
15
#350000
1$
1@
1P
0K
1B
0S
0Z
0<
05
#400000
1!
0"
0#
0$
1E
0L
0>
0@
0P
1K
1Z
1<
0R
15
#450000
1$
1@
0W
1P
0K
0I
1R
1K
#500000
1#
0$
1>
0@
1W
0P
1I
0B
0Y
0K
1Y
1K
#550000
1$
1@
1P
0K
1B
#600000
1"
0#
0$
1L
0>
0@
1S
0P
1K
0R
#650000
1$
1@
0W
1P
0K
0I
1R
1K
#700000
1#
0$
1>
0@
1W
0P
1I
0B
0Y
0K
1Y
1K
0Z
0<
05
1Z
1<
15
#750000
1$
1@
1P
0K
1B
#800000
0!
0"
0#
0$
0E
0L
0>
0@
0P
1K
0R
0S
0Z
0<
05
#850000
1$
1@
0W
1P
0K
0I
1R
1K
1S
1Z
1<
15
#900000
1#
0$
1>
0@
1W
0P
1I
0B
0Y
0K
1Y
1K
#950000
1$
1@
1P
0K
1B
