Praticas/P7/Resolucao/simulation/qsim/MuxDemo.msim.vcd
$comment
	File created using the following command:
		vcd file MuxDemo.msim.vcd -direction
$end
$date
	Wed Nov 23 22:05:35 2022
$end
$version
	ModelSim Version 2020.1
$end
$timescale
	1ps
$end

$scope module MuxDemo3_vlg_vec_tst $end
$var reg 1 ! A $end
$var reg 1 " B $end
$var reg 1 # C $end
$var reg 1 $ D $end
$var wire 1 % F $end

$scope module i1 $end
$var wire 1 & gnd $end
$var wire 1 ' vcc $end
$var wire 1 ( unknown $end
$var tri1 1 ) devclrn $end
$var tri1 1 * devpor $end
$var tri1 1 + devoe $end
$var wire 1 , F~output_o $end
$var wire 1 - A~input_o $end
$var wire 1 . B~input_o $end
$var wire 1 / C~input_o $end
$var wire 1 0 D~input_o $end
$var wire 1 1 inst|inst28|inst4~0_combout $end
$upscope $end
$upscope $end
$enddefinitions $end
#0
$dumpvars
0!
0"
0#
0$
0%
0&
1'
x(
1)
1*
1+
0,
0-
0.
0/
00
01
$end
#50000
1$
10
11
1,
1%
#100000
1#
0$
1/
00
#150000
1$
10
#200000
1"
0#
0$
1.
0/
00
#250000
1$
10
#300000
1#
0$
1/
00
#350000
1$
10
01
0,
0%
#400000
1!
0"
0#
0$
1-
0.
0/
00
11
1,
1%
#450000
1$
10
#500000
1#
0$
1/
00
#550000
1$
10
#600000
1"
0#
0$
1.
0/
00
#650000
1$
10
#700000
1#
0$
1/
00
#750000
1$
10
#800000
0!
0"
0#
0$
0-
0.
0/
00
01
0,
0%
#850000
1$
10
11
1,
1%
#900000
1#
0$
1/
00
#950000
1$
10
